\relax 
\catcode`"\active
\select@language{english}
\@writefile{toc}{\select@language{english}}
\@writefile{lof}{\select@language{english}}
\@writefile{lot}{\select@language{english}}
\select@language{italian}
\@writefile{toc}{\select@language{italian}}
\@writefile{lof}{\select@language{italian}}
\@writefile{lot}{\select@language{italian}}
\@mlabel{}{\unhbox \voidb@x \ignorespaces \unhbox \voidb@x \hbox {}\\}
